﻿PACK_ID;PACK_NAME;COLONNE
12950;@AIR ABS 2Go Débloqué GUY/IDN_SE;7
12949;@AIR ABS 2Go Débloqué GUY/IDN_M;7
12948;@AIR ABS 2Go Bloqué GUY/IDN_SE;7
12947;@AIR ABS 2Go Bloqué GUY/IDN_M;7
12946;@AIR ABS 2Go Débloqué ANTILLES_SE;7
12945;@AIR ABS 2Go Débloqué ANTILLES_M;7
12944;@AIR ABS 2Go Bloqué ANTILLES_SE;7
12943;@AIR ABS 2Go Bloqué ANTILLES_M;7
12942;@AIR ABS 500Mo Débloqué GUY/IDN_SE;7
12941;@AIR ABS 500Mo Débloqué GUY/IDN_M;7
12940;@AIR ABS 500Mo Bloqué GUY/IDN_SE;7
12939;@AIR ABS 500Mo Bloqué GUY/IDN_M;7
12938;@AIR ABS 500Mo Débloqué ANTILLES_SE;7
12937;@AIR ABS 500Mo Débloqué ANTILLES_M;7
12936;@AIR ABS 500Mo Bloqué ANTILLES_SE;7
12935;@AIR ABS 500Mo Bloqué ANTILLES_M;7
12933;@AIR 4H Débloqué GUY/IDN_SE;5
12932;@AIR 4H Débloqué GUY/IDN_M;5
12931;@AIR 4H Bloqué GUY/IDN_SE;5
12930;@AIR 4H Bloqué GUY/IDN_M;5
12929;@AIR 4H Débloqué ANTILLES_SE;5
12928;@AIR 4H Débloqué ANTILLES_M;5
12927;@AIR 4H Bloqué ANTILLES_SE;5
12926;@AIR 4H Bloqué ANTILLES_M;5
12925;@AIR 2H Débloqué GUY/IDN_SE;4
12924;@AIR 2H Débloqué GUY/IDN_M;4
12923;@AIR 2H Bloqué GUY/IDN_SE;4
12922;@AIR 2H Bloqué GUY/IDN_M;4
12921;@AIR 2H Débloqué ANTILLES_SE;4
12920;@AIR 2H Débloqué ANTILLES_M;4
12919;@AIR 2H Bloqué ANTILLES_SE;4
12918;@AIR 2H Bloqué ANTILLES_M;4
12917;@AIR 1H Bloqué GUY/IDN_SE;3
12916;@AIR 1H Bloqué GUY/IDN_M;3
12915;@AIR 1H Bloqué ANTILLES_SE;3
12914;@AIR 1H Bloqué ANTILLES_M;3
12913;@CANAL+M DEBLOQUE GUY/IDN_SE;1
12911;@CANAL+M BLOQUE GUY/IDN_SE;1
12909;@CANAL+M DEBLOQUE ANTILLES_SE;1
12907;@CANAL+M BLOQUE ANTILLES_SE;1
12900;Air Abs Voyage 4Go GUY/IDN M;7
12899;Air Abs Voyage 4Go GUY/IDN SM;7
12898;Air Abs Voyage 4Go Antilles M;7
12897;Air Abs Voyage 4Go Antilles SM;7
12896;TEST TECHNIQUE3-NE PAS UTILISER;1
12894;TEST TECHNIQUE-NE PAS UTILISER;1
12890;FORFAIT INTERNET+ 3G+ 5Go IDN;1
12889;FORFAIT INTERNET+ 3G+ 5Go GUY;1
12888;FORFAIT INTERNET+ 3G+ 5Go ANT;1
12884;FORFAIT INTERNET+ 3G+ 1Go IDN;1
12883;FORFAIT INTERNET+ 3G+ 1Go GUY;1
12882;FORFAIT INTERNET+ 3G+ 1Go ANT;1
12878;CARTE INTERNET+ 3G+ IDN;17
12877;CARTE INTERNET+ 3G+ GUY;17
12876;CARTE INTERNET+ 3G+ ANT;17
12873;Air Abs+ 500Mo Bloqué Guy/IDN M;7
12872;Air Abs+ 500Mo Bloqué Guy/Idn SE;7
12871;Air Abs+ 500Mo Bloqué Ant M;7
12870;Air Abs+ 500Mo Bloqué Ant SE;7
12869;Air Abs+ 500Mo Débloqué Guy/Idn M;7
12868;Air Abs+ 500Mo Débloqué Guy/Idn SE;7
12867;Air Abs+ 500Mo Débloqué Ant M;7
12866;Air Abs+ 500Mo Débloqué Ant SE;7
12864;DBS 3GCONNECT50Go DGROAMING IDN SE;2
12861;DBS 3G CONNECT 50Go 12M IDN;2
12860;DBS 3G CONNECT 50Go SE IDN;2
12859;CANAL+M DEBLOQUE GUY/IDN_M;1
12858;CANAL+M BLOQUE GUY/IDN_SS_ENG;1
12857;CANAL+M BLOQUE GUY/IDN_M;1
12856;CANAL+M DEBLOQUE GUY/IDN_SS_ENG;1
12855;CANAL+M DEBLOQUE ANTILLES_SS_ENG;1
12854;CANAL+M DEBLOQUE ANTILLES_M;1
12853;CANAL+M BLOQUE ANTILLES_SS_ENG;1
12852;CANAL+M BLOQUE ANTILLES_M;1
12845;Air Abs Voyage 35j GUY/IDN M;7
12844;Air Abs Voyage 35j GUY/IDN SM;7
12843;Air Abs Voyage 35j Antilles M;7
12842;Air Abs Voyage 35j Antilles SM;7
12841;Air Abs+ Voyage Guy/Idn Ss Engt;7
12840;Air Abs+ Voyage Guy/Idn M;7
12839;Air Abs+ Voyage Antilles Ss Engt;7
12838;Air Abs+ Voyage Antilles M;7
12837;Air Abs+ Débloqué Guy/Idn Ss Engt;7
12836;Air Abs+ Débloqué Guy/Idn M;7
12835;Air Abs+ Débloqué Antilles Ss Engt;7
12834;Air Abs+ Débloqué Antilles M;7
12833;Air Abs+ Bloqué Guy/Idn Ss Engt;7
12832;Air Abs+ Bloqué Guy/Idn M;7
12831;Air Abs+ Bloqué Antilles Ss Engt;7
12829;Air Abs+ Bloqué Antilles M;7
12786;NO LIMIT 3H GUY/IDN_2013;9
12785;NO LIMIT 3H ANTILLES_2013;9
12784;NO LIMIT 5H GUY/IDN_2013;10
12783;NO LIMIT 5H ANTILLES_2013;10
12782;NO LIMIT 1H GUY/IDN_2013;8
12781;NO LIMIT 1H ANTILLES_2013;8
12774;CARTE INTERNET 3G+ IDN;17
12773;CARTE INTERNET 3G+ GUY;17
12772;CARTE INTERNET 3G+ ANT;17
12771;DBS 3G CONNECT 5Go IDN;2
12756;CARTE INTERNET 3G+ IDN;17
12755;CARTE INTERNET 3G+ GUY;17
12754;CARTE INTERNET 3G+ ANT;17
12707;Air Absolu Voyage Guy/IdN;7
12706;Air Absolu Voyage Antilles;7
12705;Air Absolu Voyage Guy/IdN - SM;7
12704;Air Absolu Voyage Antilles - SM;7
12703;LA CARTE EXTRA SECONDE GUY/IDN;1
12702;LA CARTE EXTRA SECONDE ANTILLES;1
12701;LA CARTE EXTRA MINUTE GUY/IDN;1
12700;LA CARTE EXTRA MINUTE ANTILLES;1
12687;CARTE DIGICEL GUYANE/IDN;1
12686;CARTE DIGICEL;1
12685;Air Absolu Débloqué Guy/Idn_M;7
12684;Air Absolu Débloqué Antilles_M;7
12683;Air Absolu Débloqué Guy/Idn_SM;7
12682;Air Absolu Débloqué Antilles_SM;7
12681;Air Absolu Bloqué Guy/Idn_M;7
12680;Air Absolu Bloqué Antilles_M;7
12679;Air Absolu Bloqué Guy/Idn_SM;7
12678;Air Absolu Bloqué Antilles_SM;7
12677;AIR 6H Débloqué GUY/IDN_M;6
12676;AIR 6H Débloqué ANTILLES_M;6
12675;AIR 6H Débloqué GUY/IDN_SM;6
12674;AIR 6H Débloqué ANTILLES_SM;6
12673;AIR 6H Bloqué GUY/IDN_M;6
12672;AIR 6H Bloqué ANTILLES_M;6
12671;AIR 6H Bloqué GUY/IDN_SM;6
12670;AIR 6H Bloqué ANTILLES_SM;6
12669;AIR 4H Débloqué GUY/IDN_M;5
12668;AIR 4H Débloqué ANTILLES_M;5
12667;AIR 4H Débloqué GUY/IDN_SM;5
12666;AIR 4H Débloqué ANTILLES_SM;5
12665;AIR 4H Bloqué GUY/IDN_M;5
12664;AIR 4H Bloqué ANTILLES_M;5
12663;AIR 4H Bloqué GUY/IDN_SM;5
12662;AIR 4H Bloqué ANTILLES_SM;5
12661;AIR 2H Débloqué GUY/IDN_M;4
12660;AIR 2H Débloqué ANTILLES_M;4
12659;AIR 2H Débloqué GUY/IDN_SM;4
12658;AIR 2H Débloqué ANTILLES_SM;4
12657;AIR 2H Bloqué GUY/IDN_M;4
12656;AIR 2H Bloqué ANTILLES_M;4
12655;AIR 2H Bloqué GUY/IDN_SM;4
12654;AIR 2H Bloqué ANTILLES_SM;4
12653;AIR 1H Bloqué GUY/IDN_M;3
12652;AIR 1H Bloqué ANTILLES_M;3
12651;AIR 1H Bloqué GUY/IDN_SM;3
12650;AIR 1H Bloqué ANTILLES_SM;3
12649;AIR 40 Mn Bloqué GUY/IDN_M;5
12648;AIR 40 Mn Bloqué ANTILLES_M;5
12647;AIR 40 Mn Bloqué GUY/IDN_SM;5
12646;AIR 40 Mn Bloqué ANTILLES_SM;5
12640;No Limit 5h GUY/IDN;10
12639;No Limit 5h Antilles;10
12638;No Limit 3h GUY/IDN;9
12637;No Limit 3h Antilles;9
12636;No Limit 1h GUY/IDN;8
12635;No Limit 1h Antilles;8
